n_pts,n_kernel_evecs,n_common_evecs,random_seed,time_example,time_k1,mat_sparsity_k1,mat_neighbors_per_row_k1,time_k2,mat_sparsity_k2,mat_neighbors_per_row_k2,time_eig_k1,time_eig_k2,time_common
105000,100,10,0,0.017574310302734375,5.7259681224823,0.023076426303854876,24,5.654699325561523,0.02313792290249433,24,85.61932039260864,76.02319264411926,1.3213303089141846
105000,100,10,1,0.035689353942871094,5.73174786567688,0.023073433106575964,24,5.673869371414185,0.02313857596371882,24,84.78930830955505,74.42128324508667,1.3292500972747803
105000,100,10,2,0.02933645248413086,5.704592227935791,0.02307609977324263,24,5.6032655239105225,0.023132027210884355,24,90.55799198150635,77.08715391159058,1.430248498916626
105000,100,10,3,0.028534889221191406,5.910804748535156,0.02309059410430839,24,5.590402841567993,0.023133913832199544,24,87.19037437438965,76.0260066986084,1.635244369506836
105000,100,10,4,0.029115915298461914,5.907525539398193,0.02308471655328798,24,5.590837717056274,0.023139174603174606,24,89.59529304504395,74.82013463973999,1.303264856338501
105000,100,10,5,0.03206610679626465,5.864054441452026,0.023072689342403627,24,5.679037809371948,0.023144362811791386,24,90.30241966247559,75.85655403137207,1.425980806350708
105000,100,10,6,0.029137372970581055,5.92714262008667,0.02307034920634921,24,5.571461915969849,0.023132662131519276,24,89.0369713306427,75.9895920753479,1.6730659008026123
105000,100,10,7,0.029150724411010742,5.937069416046143,0.02307998185941043,24,5.63900899887085,0.023141714285714286,24,88.74199867248535,77.39609456062317,1.3792824745178223
105000,100,10,8,0.02929973602294922,5.777695655822754,0.023079238095238094,24,5.555380821228027,0.02313942857142857,24,90.52454686164856,77.47952485084534,1.6890230178833008
105000,100,10,9,0.028809785842895508,5.828427791595459,0.023078857142857144,24,5.619685173034668,0.023138684807256234,24,90.76331496238708,72.06940078735352,1.559424877166748
130000,100,10,0,0.035958051681518555,7.281262636184692,0.018651846153846154,24,7.0642640590667725,0.01869126627218935,24,116.45820045471191,99.37694692611694,1.9049122333526611
130000,100,10,1,0.0363001823425293,7.368934631347656,0.018642757396449706,24,7.09772253036499,0.018684828402366863,24,120.93905591964722,99.72882199287415,1.7921898365020752
130000,100,10,2,0.03594970703125,7.312381267547607,0.01864807100591716,24,7.177634000778198,0.018681834319526625,24,129.26396703720093,105.8944902420044,1.7783818244934082
130000,100,10,3,0.03600811958312988,7.240597248077393,0.018648650887573965,24,6.9916346073150635,0.018681834319526625,24,121.06824898719788,99.966632604599,1.9436352252960205
130000,100,10,4,0.03599691390991211,7.490905284881592,0.018647810650887574,24,7.048859119415283,0.018686331360946745,24,121.17949438095093,106.2040421962738,1.6877460479736328
130000,100,10,5,0.035808563232421875,7.245938539505005,0.01864568047337278,24,7.12489128112793,0.018685846153846154,24,114.1931004524231,101.62518835067749,1.9189400672912598
130000,100,10,6,0.03580951690673828,7.184465169906616,0.018644485207100592,24,7.020324230194092,0.018680201183431954,24,116.29863023757935,105.94494771957397,2.1205952167510986
130000,100,10,7,0.035890817642211914,7.271854877471924,0.01864641420118343,24,7.143155336380005,0.018686698224852073,24,120.61274552345276,106.3636589050293,1.870694637298584
130000,100,10,8,0.03591799736022949,7.259241104125977,0.018643633136094673,24,7.018459796905518,0.018690236686390534,24,122.67332673072815,99.62606143951416,1.8407008647918701
130000,100,10,9,0.03911161422729492,7.160333633422852,0.018651644970414202,24,6.986215114593506,0.018687668639053252,24,120.11223363876343,92.08847212791443,1.6908349990844727
155000,100,10,0,0.04285740852355957,8.807722806930542,0.015641531737773152,24,8.78624176979065,0.015671933402705517,24,155.58600306510925,129.4409110546112,2.208538055419922
155000,100,10,1,0.0432276725769043,8.962453603744507,0.015643046826222685,24,8.776095628738403,0.015670609781477628,24,160.05366563796997,124.00592923164368,2.468254804611206
155000,100,10,2,0.04308128356933594,8.89500880241394,0.015641107180020812,24,8.562628746032715,0.015668428720083245,24,165.81632256507874,137.61523938179016,2.470407009124756
155000,100,10,3,0.043315887451171875,8.940791130065918,0.01563894276795005,24,8.56478238105774,0.015675887617065558,24,155.24506092071533,126.53414130210876,2.131364107131958
155000,100,10,4,0.04346489906311035,8.944974184036255,0.015645177939646204,24,8.718125104904175,0.01567522996878252,24,166.09418535232544,137.6916904449463,2.1341073513031006
155000,100,10,5,0.043300628662109375,8.929853439331055,0.01564537773152966,24,8.641972541809082,0.015675221644120708,24,160.82448816299438,139.32244086265564,2.25097918510437
155000,100,10,6,0.04301190376281738,9.100221872329712,0.01563820187304891,24,8.707626819610596,0.015672041623309055,24,157.48080563545227,130.71220660209656,2.1009199619293213
155000,100,10,7,0.043097734451293945,8.96565055847168,0.015642089490114464,24,8.608760833740234,0.01566983558792924,24,156.76716136932373,126.15368103981018,2.649885654449463
155000,100,10,8,0.042994022369384766,9.20771312713623,0.015641656607700314,24,8.69046401977539,0.015673681581685743,24,162.08391118049622,136.38693976402283,2.271730661392212
155000,100,10,9,0.04287528991699219,9.045405864715576,0.0156377273673257,24,8.565134763717651,0.015674680541103016,24,165.53466701507568,123.09189033508301,2.3004310131073
180000,100,10,0,0.049685001373291016,10.337889194488525,0.013472395061728395,24,9.872242450714111,0.013495253086419752,24,212.04455375671387,167.32521271705627,2.5227713584899902
180000,100,10,1,0.049817800521850586,10.24866247177124,0.013474364197530866,24,9.710090637207031,0.013494555555555555,24,207.80265140533447,173.61629605293274,2.2552120685577393
180000,100,10,2,0.04977583885192871,10.090775728225708,0.013473302469135803,24,9.748686790466309,0.01349695061728395,24,202.99799060821533,172.16327142715454,2.6275806427001953
180000,100,10,3,0.04971790313720703,10.248456954956055,0.013469493827160495,24,9.863499641418457,0.013497111111111113,24,211.43708038330078,164.3270707130432,3.0337562561035156
180000,100,10,4,0.05296158790588379,10.174476623535156,0.013470672839506172,24,10.166281700134277,0.013494728395061729,24,204.84707736968994,177.33231329917908,2.1775951385498047
180000,100,10,5,0.049895524978637695,10.307538270950317,0.013473271604938272,24,9.925395011901855,0.013495814814814815,24,201.62731790542603,173.46255135536194,2.701181411743164
180000,100,10,6,0.04950428009033203,10.038119077682495,0.013467456790123457,24,9.934694766998291,0.013493907407407406,24,203.20483326911926,169.52924871444702,2.6189939975738525
180000,100,10,7,0.05018186569213867,10.14439582824707,0.013472018518518519,24,9.95103669166565,0.013492685185185186,24,200.8503222465515,174.26477646827698,2.8680436611175537
180000,100,10,8,0.05024361610412598,10.054357290267944,0.01346998148148148,24,10.008794784545898,0.013494592592592591,24,215.94739818572998,152.74405026435852,2.557872772216797
180000,100,10,9,0.049751996994018555,10.119771242141724,0.013473222222222222,24,9.996683359146118,0.013496999999999999,24,213.8468039035797,171.72199058532715,3.2060508728027344
205000,100,10,0,0.05669450759887695,11.830329895019531,0.011828525877453897,24,11.594587564468384,0.011851036287923855,24,243.74410915374756,199.83161735534668,2.7587473392486572
205000,100,10,1,0.05668830871582031,11.74433946609497,0.01183156216537775,24,11.314255714416504,0.011847224271267102,24,252.1400408744812,199.7066831588745,3.602236270904541
205000,100,10,2,0.05688357353210449,11.760269403457642,0.011830377156454491,24,11.570837259292603,0.011848966091612137,24,237.77239561080933,206.79055523872375,3.0754244327545166
205000,100,10,3,0.05686044692993164,11.861320734024048,0.011830910172516359,24,11.324889898300171,0.01184894229625223,24,259.3477385044098,201.20250749588013,3.1369409561157227
205000,100,10,4,0.05708122253417969,11.561110258102417,0.011832632956573467,24,11.120259284973145,0.01184972278405711,24,258.1803996562958,203.5962429046631,3.1182074546813965
205000,100,10,5,0.05687284469604492,11.49285364151001,0.011832147531231409,24,11.233329772949219,0.011852011897679952,24,248.00161385536194,203.71177983283997,2.921283483505249
205000,100,10,6,0.05716514587402344,11.784952878952026,0.011828088042831647,24,11.122538566589355,0.011849227840571089,24,243.3011827468872,206.38661789894104,3.1039376258850098
205000,100,10,7,0.056676626205444336,11.876755237579346,0.0118296252230815,24,11.296884775161743,0.011849427721594289,24,248.10753750801086,212.07804226875305,3.5515708923339844
205000,100,10,8,0.056391000747680664,11.846763134002686,0.011827493158834027,24,11.182443618774414,0.011852283164782868,24,255.45492815971375,199.35331559181213,3.373307943344116
205000,100,10,9,0.05648446083068848,11.693106174468994,0.011833427721594288,24,11.483607769012451,0.011850541344437835,24,251.8856544494629,204.27929162979126,3.254568576812744
230000,100,10,0,0.06313061714172363,13.496741533279419,0.010547119092627599,24,12.68127727508545,0.010562714555765596,24,280.2929165363312,243.3460509777069,3.429868459701538
230000,100,10,1,0.0640263557434082,13.251893997192383,0.01054509640831758,24,12.906567573547363,0.010560098298676749,24,300.0173020362854,247.21441507339478,3.244821071624756
230000,100,10,2,0.062486886978149414,13.588829517364502,0.010546646502835539,24,12.8399178981781,0.010559572778827978,24,298.40512704849243,242.4860134124756,4.1985251903533936
230000,100,10,3,0.05868220329284668,13.967289686203003,0.010546158790170132,24,13.135440111160278,0.010563977315689982,24,298.34253573417664,251.3416519165039,3.3155853748321533
230000,100,10,4,0.061417341232299805,13.30852746963501,0.010550086956521739,24,12.8029625415802,0.010561198487712666,24,290.1637806892395,241.7878704071045,3.247450113296509
230000,100,10,5,0.06235146522521973,13.166946649551392,0.010546502835538752,24,12.702028751373291,0.010559909262759924,24,296.77320170402527,250.2001392841339,3.278695821762085
230000,100,10,6,0.06134462356567383,13.208634853363037,0.010546113421550094,24,12.910221099853516,0.010559992438563327,24,281.53556632995605,245.94224405288696,3.1532068252563477
230000,100,10,7,0.06258058547973633,13.690314531326294,0.010544680529300566,24,12.856664180755615,0.010562173913043479,24,299.07852029800415,241.52216720581055,3.313627243041992
230000,100,10,8,0.06231379508972168,13.623585224151611,0.010546741020793952,24,12.643640279769897,0.01056447258979206,24,305.89786195755005,225.73743796348572,3.29484224319458
230000,100,10,9,0.06236124038696289,13.485201358795166,0.010547338374291115,24,12.729202508926392,0.010562578449905482,24,283.53357911109924,238.85264039039612,3.477677583694458
255000,100,10,0,0.0638432502746582,14.99828028678894,0.00951351326412918,24,14.667025089263916,0.009526782006920415,24,353.9332981109619,275.5139217376709,3.8088111877441406
255000,100,10,1,0.0666959285736084,14.96280813217163,0.009512402921953095,24,14.577402114868164,0.009526083813917724,24,355.20729064941406,278.3719208240509,3.2502331733703613
255000,100,10,2,0.06374168395996094,14.97734808921814,0.009511587850826606,24,14.474265336990356,0.00952487197231834,24,355.8671386241913,279.0124933719635,4.578745126724243
255000,100,10,3,0.06622743606567383,14.943423986434937,0.009512141484044598,24,14.428102970123291,0.00952637908496732,24,332.0739858150482,299.1270320415497,3.8376240730285645
255000,100,10,4,0.0658714771270752,14.88238263130188,0.009513971549404076,24,14.18118405342102,0.009525139561707035,24,361.0902590751648,278.35296630859375,3.5097928047180176
255000,100,10,5,0.06615972518920898,14.602023839950562,0.009516278354479046,24,14.391519784927368,0.009525773164167629,24,339.46099185943604,293.76739263534546,3.531039237976074
255000,100,10,6,0.0661630630493164,15.19261646270752,0.009511547866205306,24,14.48900294303894,0.00952471510957324,24,357.1775712966919,277.5701868534088,3.197803497314453
255000,100,10,7,0.06641292572021484,15.242410898208618,0.009510133025759322,24,14.28818416595459,0.009526535947712418,24,338.3933787345886,276.0520462989807,3.9929466247558594
255000,100,10,8,0.06428837776184082,14.934355020523071,0.009514580545943868,24,14.518218040466309,0.009527077277970012,24,352.1524484157562,286.4451506137848,3.857869863510132
255000,100,10,9,0.06636738777160645,15.304925441741943,0.009516213763936947,24,14.266765594482422,0.009528393694732795,24,359.5519988536835,285.1312336921692,3.9897563457489014
280000,100,10,0,0.07239127159118652,16.289307832717896,0.008665329081632653,24,15.755118370056152,0.00867627806122449,24,434.1686112880707,357.0073227882385,4.378618001937866
280000,100,10,1,0.06990599632263184,16.780440092086792,0.008663553571428572,24,16.169888019561768,0.00867489030612245,24,437.14572834968567,336.26971411705017,3.9610378742218018
280000,100,10,2,0.06810808181762695,16.8000590801239,0.008663456632653062,24,15.983988523483276,0.00867470918367347,24,415.58342146873474,346.3377757072449,3.9550466537475586
280000,100,10,3,0.07018470764160156,16.789155960083008,0.008664438775510205,24,15.92549443244934,0.008676395408163265,24,424.98881220817566,358.2698247432709,3.9859139919281006
280000,100,10,4,0.06894564628601074,16.31588315963745,0.008664551020408163,24,15.67596173286438,0.00867522193877551,24,430.2725512981415,319.5619685649872,4.194144248962402
280000,100,10,5,0.06964278221130371,17.020578861236572,0.008664410714285715,24,16.0203914642334,0.008675477040816327,24,416.35384011268616,358.4237468242645,4.086183786392212
280000,100,10,6,0.06982111930847168,16.597522020339966,0.008665107142857143,24,15.840188026428223,0.008675142857142857,24,402.9791009426117,325.8608465194702,3.643049478530884
280000,100,10,7,0.06978130340576172,17.11494278907776,0.008664107142857144,24,16.076810598373413,0.008676823979591837,24,418.57824778556824,347.35754919052124,4.267110586166382
280000,100,10,8,0.06841468811035156,16.880295515060425,0.008664686224489796,24,15.932748556137085,0.008677173469387756,24,426.7611093521118,325.63068103790283,4.330810308456421
280000,100,10,9,0.07076382637023926,17.052772760391235,0.008664752551020408,24,15.78185248374939,0.008676869897959183,24,444.33203983306885,355.35298776626587,3.819035530090332
