n_pts,n_kernel_evecs,n_common_evecs,random_seed,time_example,time_k1,mat_sparsity_k1,time_k2,mat_sparsity_k2,time_eig_k1,time_eig_k2,time_common
5000,100,10,0,0.001996278762817383,0.23940825462341309,1.512664,0.20880484580993652,1.7054079999999998,1.2480189800262451,1.0162806510925293,0.14561176300048828
10000,100,10,0,0.000997781753540039,0.4118974208831787,0.6373979999999999,0.4793992042541504,1.1845780000000001,3.0660367012023926,2.565561294555664,0.28025197982788086
15000,100,10,0,0.000997304916381836,0.5814862251281738,0.3530364444444445,0.7669134140014648,0.9107937777777778,6.041277647018433,4.594386339187622,0.2932169437408447
20000,100,10,0,0.0019948482513427734,0.8218414783477783,0.34644749999999996,1.0923702716827393,0.7076625,8.228566884994507,7.4512670040130615,0.39893341064453125
25000,100,10,0,0.0009984970092773438,1.0755295753479004,0.25706944,1.3025362491607666,0.52366528,11.737112045288086,10.588497400283813,0.6497797966003418
30000,100,10,0,0.0009980201721191406,1.4207227230072021,0.21226155555555556,1.7842843532562256,0.48989333333333335,17.411001920700073,14.634642601013184,0.7207725048065186
35000,100,10,0,0.0029921531677246094,1.6347160339355469,0.20273779591836733,2.250981092453003,0.4339903673469388,20.634110689163208,19.102713584899902,0.7260587215423584
40000,100,10,0,0.005982637405395508,1.7877326011657715,0.151550375,2.6349940299987793,0.45847525,31.934484720230103,30.522867679595947,1.0631558895111084
45000,100,10,0,0.004987478256225586,2.4185597896575928,0.16932632098765432,3.02691650390625,0.43641185185185183,34.3884596824646,34.68610763549805,1.0737948417663574
