n_pts,n_kernel_evecs,n_common_evecs,random_seed,time_example,time_k1,mat_sparsity_k1,mat_neighbors_per_row_k1,time_k2,mat_sparsity_k2,mat_neighbors_per_row_k2,time_eig_k1,time_eig_k2,time_common
20000,150,10,0,0.003499269485473633,0.9718751907348633,0.1207655,24,0.9547033309936523,0.12140250000000001,24,6.858528137207031,5.7947869300842285,0.3955206871032715
40000,150,10,0,0.009381294250488281,2.1429367065429688,0.060504,24,2.011923313140869,0.060710375000000004,24,14.021348476409912,15.444298267364502,0.8364830017089844
60000,150,10,0,0.016110658645629883,3.295156240463257,0.04034727777777778,24,3.1308341026306152,0.04048333333333333,24,26.767953634262085,24.894373178482056,1.199023723602295
80000,150,10,0,0.021030426025390625,4.5561628341674805,0.0302811875,24,4.298547267913818,0.030383,24,30.811078786849976,33.74501323699951,1.7454655170440674
100000,150,10,0,0.0265805721282959,5.560954809188843,0.02422378,24,5.375263452529907,0.02429028,24,38.84371471405029,39.02171182632446,1.9390003681182861
120000,150,10,0,0.03184223175048828,6.942683458328247,0.02020473611111111,24,6.576661825180054,0.02023613888888889,24,52.77267599105835,47.14866614341736,2.666013240814209
140000,150,10,0,0.037241458892822266,7.963993310928345,0.017319112244897957,24,7.738975524902344,0.017353530612244896,24,57.69134998321533,52.41560125350952,2.724233388900757
160000,150,10,0,0.043401479721069336,9.259660482406616,0.015150914062500001,24,8.969731569290161,0.01518440625,24,63.71256685256958,58.09815526008606,3.5505545139312744
180000,150,10,0,0.04900789260864258,10.327624559402466,0.013472395061728395,24,10.02244782447815,0.013495253086419752,24,65.65038275718689,66.21606349945068,3.922701597213745
200000,150,10,0,0.05463075637817383,11.559377193450928,0.012125695,24,11.0892014503479,0.0121474,24,73.51185131072998,73.63666105270386,4.191456079483032
220000,150,10,0,0.06104922294616699,12.847951650619507,0.011023504132231405,24,12.265989780426025,0.011041495867768595,24,88.76315569877625,81.0898687839508,5.375560522079468
240000,150,10,0,0.06556057929992676,13.96034574508667,0.010107552083333334,24,13.419570922851562,0.010121913194444445,24,96.84538865089417,88.3132119178772,4.348836183547974
260000,150,10,0,0.06880545616149902,15.324387311935425,0.00933028698224852,24,14.85367727279663,0.009343866863905327,24,94.51868224143982,113.43261575698853,4.867632627487183
280000,150,10,0,0.07176494598388672,16.62163782119751,0.008665329081632653,24,15.939981937408447,0.00867627806122449,24,106.2352683544159,106.78124666213989,4.553147792816162
300000,150,10,0,0.07620501518249512,18.10425591468811,0.008087522222222221,24,17.20656108856201,0.008098508888888889,24,110.37356352806091,101.157949924469,5.043148517608643
320000,150,10,0,0.07802391052246094,19.174002408981323,0.007582679687500001,24,18.461551427841187,0.007591447265625,24,130.52217769622803,119.55832719802856,5.099280118942261
340000,150,10,0,0.0823814868927002,20.11923098564148,0.007135223183391003,24,19.180649757385254,0.0071443442906574395,24,127.19613099098206,128.51508617401123,5.788947820663452
360000,150,10,0,0.08384943008422852,21.463754177093506,0.006738979938271605,24,20.42478847503662,0.0067480817901234575,24,133.56306147575378,133.53708267211914,5.239766597747803
380000,150,10,0,0.08639025688171387,22.430498123168945,0.006384042936288089,24,21.73323154449463,0.0063926108033241,24,126.53228759765625,140.12833976745605,6.613401174545288
400000,150,10,0,0.0828404426574707,23.35668683052063,0.0060658475,24,22.786191940307617,0.006073385,24,147.90320491790771,133.2220013141632,7.400536775588989
420000,150,10,0,0.09090256690979004,24.74083137512207,0.005778154195011338,24,24.381144523620605,0.005784357142857143,24,156.59167647361755,155.9892566204071,8.183723211288452
440000,150,10,0,0.09026098251342773,25.9793541431427,0.005515637396694215,24,25.219653129577637,0.005522464876033058,24,161.76814031600952,146.1299250125885,7.274981498718262
460000,150,10,0,0.09386014938354492,27.70844554901123,0.0052757977315689986,24,26.837260484695435,0.005282112476370511,24,168.77051496505737,169.139155626297,8.541414260864258
480000,150,10,0,0.0982508659362793,29.203707933425903,0.0050564262152777775,24,28.243274450302124,0.0050617673611111115,24,177.4102339744568,160.54098868370056,8.537293195724487
500000,150,10,0,0.10039019584655762,30.406702756881714,0.0048539272,24,29.036350965499878,0.004859094400000001,24,185.12812399864197,185.9986126422882,7.977649211883545
